{
    "orb_name": "terraform-pipeline-tasks",
    "orb_description": "Set of commands and jobs for managing terraform infrastructure pipelines.",
    "team_name": "pe",
    "executor_image_name": "grainger-di-circleci-base-agent",
    "executor_image_version": "8"
}
